\relax 
\providecommand\hyper@newdestlabel[2]{}
\providecommand\HyperFirstAtBeginDocument{\AtBeginDocument}
\HyperFirstAtBeginDocument{\ifx\hyper@anchor\@undefined
\global\let\oldcontentsline\contentsline
\gdef\contentsline#1#2#3#4{\oldcontentsline{#1}{#2}{#3}}
\global\let\oldnewlabel\newlabel
\gdef\newlabel#1#2{\newlabelxx{#1}#2}
\gdef\newlabelxx#1#2#3#4#5#6{\oldnewlabel{#1}{{#2}{#3}}}
\AtEndDocument{\ifx\hyper@anchor\@undefined
\let\contentsline\oldcontentsline
\let\newlabel\oldnewlabel
\fi}
\fi}
\global\let\hyper@last\relax 
\gdef\HyperFirstAtBeginDocument#1{#1}
\providecommand\HyField@AuxAddToFields[1]{}
\providecommand\HyField@AuxAddToCoFields[2]{}
\select@language{english}
\@writefile{toc}{\select@language{english}}
\@writefile{lof}{\select@language{english}}
\@writefile{lot}{\select@language{english}}
\newlabel{index::doc}{{}{1}{}{section*.2}{}}
\@writefile{toc}{\contentsline {chapter}{\numberline {1}Design and Goals}{3}{chapter.1}}
\@writefile{lof}{\addvspace {10\p@ }}
\@writefile{lot}{\addvspace {10\p@ }}
\@writefile{loliteral-block}{\addvspace {10\p@ }}
\newlabel{design:welcome-to-poc-eagle-eye-s-documentation}{{1}{3}{Design and Goals}{chapter.1}{}}
\newlabel{design::doc}{{1}{3}{Design and Goals}{chapter.1}{}}
\newlabel{design:design-and-goals}{{1}{3}{Design and Goals}{chapter.1}{}}
\@writefile{toc}{\contentsline {section}{\numberline {1.1}Project Specification}{3}{section.1.1}}
\newlabel{design:project-specification}{{1.1}{3}{Project Specification}{section.1.1}{}}
\@writefile{toc}{\contentsline {subsection}{\numberline {1.1.1}System Design}{3}{subsection.1.1.1}}
\newlabel{design:system-design}{{1.1.1}{3}{System Design}{subsection.1.1.1}{}}
