\select@language {english}
\contentsline {chapter}{\numberline {1}Design and Goals}{3}{chapter.1}
\contentsline {section}{\numberline {1.1}Project Specification}{3}{section.1.1}
\contentsline {subsection}{\numberline {1.1.1}System Design}{3}{subsection.1.1.1}
