,Record_1,Record_2,Match_or_Distinct
0,"city: SAO PAULO, country: BR, id: 81792, latitude: None, longitude: None, name: CHCT BOMBONIERE, postal_code: 01220, source: 0, state: SP, street_name: R MARIA ANTONIA, street_number: 350","city: SAO PAULO, country: BR, id: ChIJTbpj3jdYzpQRYm9lGKArvVA, latitude: -23.5458682, longitude: -46.651475299999994, name: CHCT BOMBONIERE, postal_code: 01220, source: 1, state: SP, street_name: R MARIA ANTONIA, street_number: None",match
1,"city: SAO PAULO, country: BR, id: 23130, latitude: None, longitude: None, name: LANCHONETE CHAPADA DE OURO, postal_code: 04510, source: 0, state: SP, street_name: AV SANTO AMARO, street_number: 870","city: SAO PAULO, country: BR, id: ChIJu8gyhVdXzpQRkP6uI_up9RQ, latitude: -23.5917759, longitude: -46.6728917, name: LANCHONETE CHAPADA DE OURO, postal_code: 04540, source: 1, state: SP, street_name: AV SANTO AMARO, street_number: 870",match
2,"city: SAO PAULO, country: BR, id: 22739, latitude: -23.541123, longitude: -46.678625, name: CR LANCHONETE TENNIS STAR, postal_code: 01250, source: 0, state: SP, street_name: R JOSE DONATELLI, street_number: 8","city: SAO PAULO, country: BR, id: ChIJ9et7T_JXzpQR3Bky8I9KTso, latitude: -23.5412803, longitude: -46.678051700000005, name: LANCHONETE TENNIS STAR, postal_code: 01250, source: 1, state: SP, street_name: R JOSE DONATELLI, street_number: 8",match
3,"city: SAO PAULO, country: BR, id: 02090, latitude: -23.494684, longitude: -46.640478, name: BAR E LANCHES JORGINHO, postal_code: 02460, source: 0, state: SP, street_name: R NOVA DOS PORTUGUESES, street_number: 907","city: SAO PAULO, country: BR, id: ChIJJyg0Wcj3zpQRqy5aZ2ZvNNg, latitude: -23.4951014, longitude: -46.6400448, name: BAR E LANCHES JORGINHO, postal_code: 02460, source: 1, state: SP, street_name: R NOVA DOS PORTUGUESES, street_number: 301",match
4,"city: SAO PAULO, country: BR, id: 20827, latitude: None, longitude: None, name: BATIDAO DA MOOCA SUCOS E LANCHES E, postal_code: 03170, source: 0, state: SP, street_name: R TAQUARI, street_number: 97","city: SAO PAULO, country: BR, id: ChIJFXgwm0pZzpQRnqcrxYhhok8, latitude: -23.554146300000003, longitude: -46.5950528, name: BATIDAO, postal_code: 03170, source: 1, state: SP, street_name: R CAPITAES GENERAIS, street_number: 15",match
5,"city: SAO PAULO, country: BR, id: 36875, latitude: -23.560533, longitude: -46.593428, name: LANCHES FERNANDES, postal_code: 03120, source: 0, state: SP, street_name: AV DO ORATORIO, street_number: 883","city: SAO PAULO, country: BR, id: ChIJP0mYLE1ZzpQRaTiVVdYGx7M, latitude: -23.5605116, longitude: -46.593421500000005, name: LANCHES FERNANDES, postal_code: 03120, source: 1, state: SP, street_name: R BASTOS BARRETO, street_number: 883",match
6,"city: SAO PAULO, country: BR, id: 82805, latitude: -23.554937, longitude: -46.716235, name: T W A BAR RESTAURANTE, postal_code: 05480, source: 0, state: SP, street_name: AV DAS NACOES UNIDAS, street_number: 4777","city: SAO PAULO, country: BR, id: ChIJIT9u_zZWzpQRSyfngOc7QoQ, latitude: -23.5549332, longitude: -46.7162326, name: T W A BAR E RESTAURANTE, postal_code: 05480, source: 1, state: SP, street_name: AV NACOES UNIDAS 4777 PT 3 LJ 378 ALTO DE PINHEIROS, street_number: None",match
7,"city: SAO PAULO, country: BR, id: 21073, latitude: -23.541631, longitude: -46.593792, name: LANCHONETE AMORINHO, postal_code: 03060, source: 0, state: SP, street_name: R SILVA JARDIM, street_number: 211","city: SAO PAULO, country: BR, id: ChIJw02blilZzpQRg7WpGt-YvyA, latitude: -23.5374065, longitude: -46.5991383, name: LANCHONETE AMORINHO, postal_code: 03020, source: 1, state: SP, street_name: R CATUMBI, street_number: 72",match
8,"city: SAO PAULO, country: BR, id: 05079, latitude: -23.504552, longitude: -46.688732, name: BAR E LANCHES DO FOFAO, postal_code: 02860, source: 0, state: SP, street_name: AV INAJAR DE SOUZA, street_number: 75","city: SAO PAULO, country: BR, id: ChIJCfLdxzj4zpQRVFRZdv04-Zs, latitude: -23.504504999999998, longitude: -46.688728999999995, name: BAR E LANCHES DO FOFAO, postal_code: 02720, source: 1, state: SP, street_name: AV INAJAR DE SOUZA, street_number: 75",match
9,"city: SAO PAULO, country: BR, id: 52033, latitude: -23.477252, longitude: -46.590407, name: BAR E MERCEARIA DRAMODER, postal_code: 02260, source: 0, state: SP, street_name: R DAS VERTENTES, street_number: 307","city: SAO PAULO, country: BR, id: ChIJb2LecOf1zpQRRDJe7oF04xk, latitude: -23.480098, longitude: -46.5901256, name: BAR E MERCEARIA DRAMODER, postal_code: 02250, source: 1, state: SP, street_name: R CANEDOS, street_number: 182",match
10,"city: SAO PAULO, country: BR, id: 47580, latitude: -23.604405, longitude: -46.69444, name: VILLA FELICE, postal_code: 04570, source: 0, state: SP, street_name: R SANSAO ALVES DOS SANTOS, street_number: 300","city: SAO PAULO, country: BR, id: ChIJnffDHEhXzpQRQTDehbtU_vA, latitude: -23.5965151, longitude: -46.689569, name: VILLA FELICE, postal_code: 04550, source: 1, state: SP, street_name: ALAM RAJA GABAGLIA, street_number: 261",match
11,"city: SAO PAULO, country: BR, id: 57100, latitude: -23.582446, longitude: -46.415209, name: BAR E RESTAURANTE ESTREITA, postal_code: 08380, source: 0, state: SP, street_name: AV RAGUEB CHOHFI, street_number: 2958","city: SAO PAULO, country: BR, id: ChIJDRQpWYllzpQRmmmqP30M10c, latitude: -23.582316, longitude: -46.4151179, name: BAR E RESTAURANTE ESTREITA, postal_code: 08490, source: 1, state: SP, street_name: EST IGUATEMI, street_number: 2958",match
12,"city: SAO PAULO, country: BR, id: 91705, latitude: -23.516864, longitude: -46.705056, name: BOTECO DO LARGO, postal_code: 05070, source: 0, state: SP, street_name: R ENGENHEIRO AUBERTIN, street_number: 24","city: SAO PAULO, country: BR, id: ChIJiXrotWX4zpQRcQ-qqAjPkf4, latitude: -23.5208895, longitude: -46.702357, name: BOTECO DO LARGO, postal_code: 05890, source: 1, state: SP, street_name: R NOSSA SENHORA DA LAPA, street_number: 124",match
13,"city: SAO PAULO, country: BR, id: 02168, latitude: -23.464831, longitude: -46.632467, name: BAR FLORESTAL, postal_code: 02420, source: 0, state: SP, street_name: AV SANTA INES, street_number: 1937","city: SAO PAULO, country: BR, id: ChIJ3QH7mbXwzpQRdP5m7LgK_xA, latitude: -23.436964899999996, longitude: -46.652158, name: BAR FLORESTAL, postal_code: 02610, source: 1, state: SP, street_name: EST SANTA INES, street_number: 1937",match
14,"city: SAO PAULO, country: BR, id: 79410, latitude: -23.531436, longitude: -46.6162, name: L M HOTEL, postal_code: 03030, source: 0, state: SP, street_name: R DOUTOR ORNELAS, street_number: 250","city: SAO PAULO, country: BR, id: ChIJKU74lehYzpQR4H9F7YTJByI, latitude: -23.5314495, longitude: -46.616263000000004, name: LM HOTEL, postal_code: 03030, source: 1, state: SP, street_name: R DOUTOR ORNELAS, street_number: 250",match
15,"city: SAO PAULO, country: BR, id: 88001, latitude: -22.283204, longitude: -42.535617, name: BRSC COMERCIO DE ALIMENTOS EIRELI, postal_code: 09370, source: 0, state: SP, street_name: AV IDA DOM JOSE GASPAR, street_number: 1016","city: SAO PAULO, country: BR, id: ChIJYaEbqS_4zpQRvfFLBwBw9gs, latitude: -23.494523899999997, longitude: -46.6779765, name: BOMBONIERE DE LIRA, postal_code: 02720, source: 1, state: SP, street_name: AV DEPUTADO EMILIO CARLOS, street_number: 1307",distinct
16,"city: SAO PAULO, country: BR, id: 68474, latitude: -23.583816, longitude: -46.584359, name: CLAUDIA NUZIA MENESES CAMPOS LANCHONETE, postal_code: 03140, source: 0, state: SP, street_name: R CAVOUR, street_number: 1328","city: SAO PAULO, country: BR, id: ChIJhwv4hXxZzpQRxUuFR-FAHZo, latitude: -23.578478, longitude: -46.624014, name: CASA DO PAO DE QUEIJO, postal_code: 01540, source: 1, state: SP, street_name: AV LINS DE VASCONCELOS, street_number: 1770",distinct
17,"city: SAO PAULO, country: BR, id: 83992, latitude: None, longitude: None, name: MARIA DO SOCORRO PEREIRA DE SOUSA, postal_code: 03220, source: 0, state: SP, street_name: AV DO ORATORIO, street_number: 3089","city: SAO PAULO, country: BR, id: ChIJDQ-H8XhWzpQRpDK6mpl635I, latitude: -23.580180600000002, longitude: -46.7460936, name: SUPER VIZINHO PICCIN, postal_code: 05600, source: 1, state: SP, street_name: JARDIM PINHEIROS, street_number: None",distinct
18,"city: SAO PAULO, country: BR, id: 20094, latitude: -23.553075, longitude: -46.628167, name: MERCADO MAEZINHA, postal_code: 01510, source: 0, state: SP, street_name: R OSCAR CINTRA GORDINHO, street_number: 232","city: SAO PAULO, country: BR, id: ChIJdVQDqwdZzpQR3fUyok8TFbk, latitude: -23.5540178, longitude: -46.629870700000005, name: BAR LANCHES IRMAOS BRAZ, postal_code: 01510, source: 1, state: SP, street_name: R OSCAR CINTRA GORDINHO, street_number: 27",distinct
19,"city: SAO PAULO, country: BR, id: 80920, latitude: -23.570857, longitude: -46.58314, name: MARIA DO CEU COUTINHO VILELA, postal_code: 03130, source: 0, state: SP, street_name: R LUIS GREGNANIN, street_number: 5","city: SAO PAULO, country: BR, id: ChIJWYN60QhczpQRpYjC-pF-zYc, latitude: -23.5819984, longitude: -46.5888553, name: ONSO, postal_code: 03130, source: 1, state: None, street_name: BRAZIL, street_number: None",distinct
20,"city: SAO PAULO, country: BR, id: 51220, latitude: -23.578159, longitude: -46.640336, name: METROLANDIA LANCHES LIMITADA, postal_code: 04100, source: 0, state: SP, street_name: R VERGUEIRO, street_number: 1801","city: SAO PAULO, country: BR, id: ChIJPxTEO4RZzpQRNRTiqciGjYg, latitude: -23.5820522, longitude: -46.63835220000001, name: RAEL, postal_code: 04100, source: 1, state: SP, street_name: R VERGUEIRO, street_number: None",distinct
21,"city: SAO PAULO, country: BR, id: 21662, latitude: None, longitude: None, name: DIA BRASIL SOCIEDADE, postal_code: 04430, source: 0, state: SP, street_name: AV YERVANT KISSAJIKIAN, street_number: 3628","city: SAO PAULO, country: BR, id: ChIJd36L7BH5zpQRBjzVh0udkrs, latitude: -23.4879367, longitude: -46.719969899999995, name: DIA BRASIL SOCIEDADE, postal_code: 02940, source: 1, state: SP, street_name: AV BENEDITO ANDRADE, street_number: 81",distinct
22,"city: SAO PAULO, country: BR, id: 58420, latitude: -23.507154, longitude: -46.673606, name: PAM RESTAURANTE, postal_code: 02710, source: 0, state: SP, street_name: AV PROFESSOR CELESTINO BOURROUL, street_number: 698","city: SAO PAULO, country: BR, id: ChIJJVeVkB74zpQRgZa0rIixoOo, latitude: -23.5086708, longitude: -46.6737773, name: AMGS COMERCIO E FERRAMENTAS E SERVICOS AGRICOLAS, postal_code: 02710, source: 1, state: SP, street_name: AV PROFESSOR CELESTINO BOURROUL, street_number: 563",distinct
23,"city: SAO PAULO, country: BR, id: 88154, latitude: None, longitude: None, name: PANIFICADORA CEPAM, postal_code: 03130, source: 0, state: SP, street_name: R IBITIRAMA, street_number: 1409","city: SAO PAULO, country: BR, id: ChIJg0lu-lRbzpQRwz-edmG5gwM, latitude: -23.6473233, longitude: -46.5963085, name: PANIFICADORA CEPAM, postal_code: 04190, source: 1, state: SP, street_name: R DOM, street_number: None",distinct
24,"city: SAO PAULO, country: BR, id: 79649, latitude: None, longitude: None, name: JOSE LEONARDO LEMOS ALEXANDRE, postal_code: 01310, source: 0, state: SP, street_name: R FREI CANECA, street_number: 914","city: SAO PAULO, country: BR, id: ChIJnUMYGUtYzpQRxhFM0oFSQ-M, latitude: -23.5517294, longitude: -46.6485261, name: SEVEN, postal_code: 01310, source: 1, state: SP, street_name: R FREI CANECA, street_number: 91",distinct
25,"city: SAO PAULO, country: BR, id: 63564, latitude: -23.517474, longitude: -46.481569, name: LANCHONETE DO FRANCISCO E AGNALDO M, postal_code: 03890, source: 0, state: SP, street_name: EST DE MOGI DAS CRUZES, street_number: 1992","city: SAO PAULO, country: BR, id: ChIJF5hdZehgzpQRan-tV983A_Y, latitude: -23.5146337, longitude: -46.48798060000001, name: MAPITON, postal_code: 03890, source: 1, state: SP, street_name: EST DE MOGI DAS CRUZES, street_number: 1227",distinct
26,"city: SAO PAULO, country: BR, id: 33008, latitude: -23.545761, longitude: -46.584987, name: BAR E LANCHES TACO, postal_code: 03170, source: 0, state: SP, street_name: R SERRA DA BOCAINA, street_number: 628","city: SAO PAULO, country: BR, id: ChIJn3J-NclezpQRqY7cYIDnNps, latitude: -23.546288399999998, longitude: -46.5873073, name: BAR E LANCHES SOL DO AMANHECER, postal_code: 03170, source: 1, state: SP, street_name: R SERRA DA BOCAINA, street_number: 422",distinct
27,"city: SAO PAULO, country: BR, id: 32680, latitude: -23.53714, longitude: -46.605224, name: BAR E LANCHES SKINAO 176, postal_code: 03020, source: 0, state: SP, street_name: R JULIO CESAR DA SILVA, street_number: 176","city: SAO PAULO, country: BR, id: ChIJDwuTYt9YzpQRPXtnatZQwT0, latitude: -23.5392758, longitude: -46.609404600000005, name: BAR E LANCHES PIA, postal_code: 03020, source: 1, state: SP, street_name: AV CELSO GARCIA, street_number: 313",distinct
28,"city: SAO PAULO, country: BR, id: 22292, latitude: -23.542968, longitude: -46.6367, name: LANCHONETE RM, postal_code: 01030, source: 0, state: SP, street_name: R CAPITAO SALOMAO, street_number: 84","city: SAO PAULO, country: BR, id: ChIJt2P5YPhYzpQRGL8Uf6jL29Y, latitude: -23.539620899999996, longitude: -46.6308407, name: LANCHONETE SANTANA E CIA, postal_code: 01030, source: 1, state: SP, street_name: AV SENADOR QUEIROS, street_number: 542",distinct
29,"city: SAO PAULO, country: BR, id: 97813, latitude: None, longitude: None, name: MINIMERCADO LENDSEY, postal_code: 05040, source: 0, state: SP, street_name: PC CORNELIA, street_number: 50","city: SAO PAULO, country: BR, id: ChIJV3i1TxRVzpQRR1Vqkbmjsbw, latitude: -23.590346899999997, longitude: -46.8030304, name: MINIMERCADO LENDSEY, postal_code: 05570, source: 1, state: SP, street_name: R JOAQUIM GUIMARAES, street_number: 366",distinct
