,Record_1,Record_2,Match_or_Distinct
0,"city: JABOAT?ODOSGUARARAPES, country: BR, id: ChIJAScKAAzhqgcRJOwN0A-g96A, latitude: -8.186825299999999, longitude: -34.923160700000004, name: Fransoar Bar, postal_code: None, source: 0, state: PE, street_name:  R. Ns. do Lor?to, street_number: 353","city: RECIFE, country: BR, id: ChIJOwoasqofqwcRB8NCfaYwuLs, latitude: -8.111342500000001, longitude: -34.9053876, name: Hotel Havai, postal_code: 51160, source: 0, state: PE, street_name: R. Joaquim Bandeira, street_number: 511",distinct
1,"city: RECIFE, country: BR, id: ChIJTVsHBW0eqwcRI6-KOdn8uSA, latitude: -8.123269500000001, longitude: -34.9372115, name: Antonia Bar, postal_code: 51240, source: 0, state: PE, street_name: R. Fl?res da Cunha, street_number: 410","city: JABOAT?ODOSGUARARAPES, country: BR, id: ChIJ38_j_nbhqgcRlr-kThFjs-I, latitude: -8.183334, longitude: -34.936645899999995, name: Kitanda, postal_code: 54420, source: 0, state: PE, street_name: R. Jos? Paulino, street_number: 410",distinct
2,"city: RECIFE, country: BR, id: ChIJtW8tUrYYqwcRcUOlnnN-RBQ, latitude: -8.0687015, longitude: -34.882049200000004, name: Camarote Villarena no Galo, postal_code: None, source: 0, state: PE, street_name: R. da Conc?rdia - S?o Jos?, street_number: None","city: None, country: BR, id: ChIJa6lCVfYeqwcRGPdRv5T_9PQ, latitude: -8.1061952, longitude: -34.9204235, name: Superbom, postal_code: None, source: 0, state: None, street_name: Brazil, street_number: None",distinct
3,"city: RECIFE, country: BR, id: ChIJ91T4TFYYqwcRvHNqGAoDS_Y, latitude: -8.035257000000001, longitude: -34.8983435, name: La Playa, postal_code: 52041, source: 0, state: PE, street_name: R. Regueira Costa, street_number: 30","city: RECIFE, country: BR, id: ChIJbXGeNlYYqwcRqNU9odC43hg, latitude: -8.0358549, longitude: -34.898385, name: Maria's Do?aria, postal_code: 52041, source: 0, state: PE, street_name: None, street_number: 45",distinct
4,"city: JABOAT?ODOSGUARARAPES, country: BR, id: ChIJ_ylMbr_hqgcR4rw3_MfjHlo, latitude: -8.1642416, longitude: -34.925046200000004, name: Casa China Restaurante, postal_code: 54330, source: 0, state: PE, street_name: Av. Gen. Barreto de Menezes, street_number: 610","city: JABOAT?ODOSGUARARAPES, country: BR, id: ChIJy5L6XL_hqgcRmQN_orNOftU, latitude: -8.1640409, longitude: -34.924264, name: Casa China Restaurante, postal_code: 54330, source: 0, state: PE, street_name: Av. Barreto de Menezes, street_number: 601",distinct
5,"city: RECIFE, country: BR, id: ChIJYUuRKTsfqwcRdEdheP-8M1w, latitude: -8.0856074, longitude: -34.8951105, name: Caracol Chocolates, postal_code: 51110, source: 0, state: PE, street_name: Av. Rep?blica do L?bano, street_number: 251","city: RECIFE, country: BR, id: ChIJ98xZnzsfqwcR_V6oyX04v5Y, latitude: -8.0857779, longitude: -34.8943795, name: Netuno, postal_code: 51110, source: 0, state: PE, street_name: Av. Rep?blica do L?bano, street_number: 251",distinct
6,"city: RECIFE, country: BR, id: ChIJFVexdNsYqwcRq2zPfvC9akQ, latitude: -8.060959299999999, longitude: -34.8979951, name: Giraffas, postal_code: 54230, source: 0, state: PE, street_name: Avenida Agamenon Magalh?es 153 - lj 276 - Paissandu, street_number: None","city: RECIFE, country: BR, id: ChIJpRwyOGUYqwcR95NvPO7fSh8, latitude: -8.0379968, longitude: -34.8718215, name: Giraffas, postal_code: 50110, source: 0, state: PE, street_name: Av. Gov. Agamenon Magalh?es, street_number: 153",distinct
7,"city: None, country: BR, id: ChIJqU_3Z0cfqwcRbOTUsFdmwnI, latitude: -8.0877471, longitude: -34.8838435, name: Galega, postal_code: None, source: 0, state: None, street_name: Brazil, street_number: None","city: None, country: BR, id: ChIJn9ApwAYeqwcRbxZDH1_f--E, latitude: -8.1375262, longitude: -34.9469881, name: Mucama Bar e Restaurante, postal_code: None, source: 0, state: None, street_name: Brazil, street_number: None",distinct
8,"city: RECIFE, country: BR, id: ChIJORhMoucYqwcR_LiXKJqA134, latitude: -8.0539384, longitude: -34.8978201, name: Geo Lanches, postal_code: 50070, source: 0, state: PE, street_name:  Av. Gov. Agamenon Magalh?es, street_number: S/N","city: RECIFE, country: BR, id: ChIJ_0xXo-cYqwcR4tu2Gc_KPGA, latitude: -8.053814200000001, longitude: -34.8976277, name: Vera Lanches, postal_code: 50070, source: 0, state: PE, street_name:  Av. Gov. Agamenon Magalh?es, street_number: S/N",distinct
9,"city: OLINDA, country: BR, id: ChIJq_jBfEA9qwcRlTlXy1HOaP4, latitude: -7.988928, longitude: -34.840945899999994, name: Sal?o Pet Fl?vio Caldas, postal_code: 53030, source: 0, state: PE, street_name: Av. Carlos de Lima Cavalcante, street_number: 1825","city: OLINDA, country: BR, id: ChIJ7QTLiEw9qwcRmEyw1IL9qbc, latitude: -8.0029087, longitude: -34.846469299999995, name: xD, postal_code: 53030, source: 0, state: PE, street_name: Av. Carlos de Lima Cavalcante - Bairro Novo, street_number: None",distinct
10,"city: OLINDA, country: BR, id: ChIJ84Q3a6UiqwcRcPOuUBCRoZw, latitude: -8.0144658, longitude: -34.853088, name: Bar do Paulo, postal_code: 53020, source: 0, state: PE, street_name: R. Amparo, street_number: 11","city: OLINDA, country: BR, id: ChIJYb9YYH8XqwcRoXBrDbN5GcM, latitude: -7.9956, longitude: -34.906718, name: Bar do Paulo, postal_code: 53210, source: 0, state: PE, street_name: Av. Leopoldino Can?to de Melo - Caixa D'agua, street_number: None",distinct
11,"city: RECIFE, country: BR, id: ChIJOdYc2NAdqwcR8EItuBla4bE, latitude: -8.111881, longitude: -34.9568749, name: Frango Brilhante, postal_code: 51340, source: 0, state: PE, street_name: Av. Jorn. Costa P?rto, street_number: 665","city: RECIFE, country: BR, id: ChIJmSUrwtEdqwcRpBjX0klEgH8, latitude: -8.11046, longitude: -34.960665899999995, name: Frango Brilhante, postal_code: 51340, source: 0, state: PE, street_name: Av. Jorn. Costa P?rto, street_number: 1233",distinct
12,"city: RECIFE, country: BR, id: ChIJRQBOOTsfqwcR4D2ygObaAeQ, latitude: -8.085781200000001, longitude: -34.8946896, name: Cais, postal_code: 51110, source: 0, state: PE, street_name: Av. Rep?blica ?rabe Unida, street_number: 251","city: RECIFE, country: BR, id: ChIJBZaaSTsfqwcRkGyWw-Um6hU, latitude: -8.086240299999998, longitude: -34.8943172, name: Emp?rio da Papinha - Loja Recife, postal_code: 51110, source: 0, state: PE, street_name:  Av. Rep?blica ?rabe Unida, street_number: 251",distinct
13,"city: RECIFE, country: BR, id: 66755, latitude: -8.031714, longitude: -34.898742, name: LAURA PANIFICADORA LTDA, postal_code: 52110, source: 1, state: PE, street_name: AV  NORTE MIGUEL ARRAES DE ALENCA, street_number: R3920","city: RECIFE, country: BR, id: 80512, latitude: -8.030628, longitude: -34.901353, name: J.T PANIFICADORA LTDA - ME, postal_code: 52110, source: 1, state: PE, street_name: AV  NORTE MIGUEL ARRAES DE ALENCA, street_number: R3920",distinct
14,"city: RECIFE, country: BR, id: 65380, latitude: -8.077779, longitude: -34.971527, name: MARIA JOSE DA SILVA, postal_code: 50790, source: 1, state: PE, street_name: R   GASTAO DE CARVALHO 59, street_number: None","city: RECIFE, country: BR, id: 70538, latitude: -8.084572, longitude: -34.878217, name: MARIA JOSE DA SILVA, postal_code: 51010, source: 1, state: PE, street_name: R   DRAGAO DO MAR, street_number: 1",distinct
15,"city: RECIFE, country: BR, id: 80390, latitude: -8.117061, longitude: -34.901942, name: MAIAS COMERCIO DE ALIMENTOS LTDA, postal_code: 51020, source: 1, state: PE, street_name: R   PADRE CARAPUCEIRO, street_number: 777","city: RECIFE, country: BR, id: 80504, latitude: -8.117061, longitude: -34.901942, name: FLRS COMERCIO DE ALIMENTOS LTDA, postal_code: 51020, source: 1, state: PE, street_name: R   PADRE CARAPUCEIRO, street_number: 777",distinct
16,"city: RECIFE, country: BR, id: 64203, latitude: -7.991483000000001, longitude: -34.935217, name: TELMA LUCIA DA SILVA, postal_code: 52291, source: 1, state: PE, street_name: AV  VEREADOR OTACILIO AZEVEDO, street_number: 1","city: RECIFE, country: BR, id: 68398, latitude: -8.114528, longitude: -34.93244, name: TELMA LUCIA DA SILVA, postal_code: 51220, source: 1, state: PE, street_name: R   TUCUMA, street_number: 14",distinct
17,"city: RECIFE, country: BR, id: 72864, latitude: -8.03825, longitude: -34.900545, name: AUDREY KACA, postal_code: 52020, source: 1, state: PE, street_name: AV  CONSELHEIRO ROSA E SILVA, street_number: 1460","city: RECIFE, country: BR, id: 84724, latitude: -8.039491, longitude: -34.899789, name: PORTO DO SABOR COMERCIO DE ALIMENTOS E E, postal_code: 52020, source: 1, state: PE, street_name: AV CONSELHEIRO ROSA E SILVA, street_number: 1460",distinct
18,"city: RECIFE, country: BR, id: 62096, latitude: -8.125589, longitude: -34.915040999999995, name: CELUC RESTAURANTE LTDA, postal_code: 51150, source: 1, state: PE, street_name: AV  MARECHAL MASCARENHAS DE MORAI, street_number: S4715","city: RECIFE, country: BR, id: 83549, latitude: -8.125537, longitude: -34.914079, name: G C F DE OLIVEIRA SELF SERVICE LTDA - ME, postal_code: 51200, source: 1, state: PE, street_name: AV  MARECHAL MASCARENHAS DE MORAI, street_number: S4715",distinct
19,"city: RECIFE, country: BR, id: 82194, latitude: -8.072671000000001, longitude: -34.944297, name: BARRETTO & SILVA COMERCIO DE ALIMENTOS L, postal_code: 50790, source: 1, state: PE, street_name: ROD BR-101 SUL S/N, street_number: 550","city: RECIFE, country: BR, id: 88456, latitude: -8.073091, longitude: -34.945322, name: RIOVALE COMERCIO DE ALIMENTOS EIRELI - E, postal_code: 50790, source: 1, state: PE, street_name: ROD BR-101 SUL S/N, street_number: 550",distinct
20,"city: RECIFE, country: BR, id: 65380, latitude: -8.077779, longitude: -34.971527, name: MARIA JOSE DA SILVA, postal_code: 50790, source: 1, state: PE, street_name: R   GASTAO DE CARVALHO 59, street_number: None","city: RECIFE, country: BR, id: 81721, latitude: -8.087781, longitude: -34.933639, name: MARIA JOSE DA SILVA, postal_code: 50781, source: 1, state: PE, street_name: R   ARACATIBA, street_number: 35",distinct
21,"city: RECIFE, country: BR, id: 63179, latitude: -8.085222, longitude: -34.906856, name: J. L. BEBIDAS E ALIMENTOS LTDA, postal_code: 50790, source: 1, state: PE, street_name: ROD BR-101 SUL S/N, street_number: 550","city: RECIFE, country: BR, id: 80222, latitude: -8.072678, longitude: -34.942924, name: DOC DISTRIBUIDORA DE ALIMENTOS E BEBIDAS, postal_code: 50790, source: 1, state: PE, street_name: ROD BR-101 SUL S/N, street_number: 550",distinct
22,"city: RECIFE, country: BR, id: 64929, latitude: -8.03495, longitude: -34.912094, name: CASA FORTE COMERCIO DE ALIMENTOS LTDA, postal_code: 52060, source: 1, state: PE, street_name: AV  DEZESSETE DE AGOSTO, street_number: 1761","city: RECIFE, country: BR, id: 70618, latitude: -8.03378, longitude: -34.922492, name: F.C.F. COMERCIAL DE ALIMENTOS LTDA, postal_code: 52060, source: 1, state: PE, street_name: AV  DEZESSETE DE AGOSTO, street_number: 1745",distinct
23,"city: RECIFE, country: BR, id: 42170, latitude: -8.020969000000001, longitude: -34.922533, name: LUIZ JOSE DA SILVA, postal_code: 52081, source: 1, state: PE, street_name: AV  NORTE MIGUEL ARRAES DE ALENCA, street_number: R6210","city: RECIFE, country: BR, id: 74798, latitude: -8.020933, longitude: -34.920781, name: JOELMA CORREIA DE ARAUJO 69814180459, postal_code: 52280, source: 1, state: PE, street_name: AV  NORTE MIGUEL ARRAES DE ALENCA, street_number: R6210",distinct
24,"city: RECIFE, country: BR, id: 75131, latitude: -8.072703, longitude: -34.94451, name: R J ATACADO LTDA, postal_code: 50790, source: 1, state: PE, street_name: ROD BR-101 SUL S/N, street_number: 550","city: RECIFE, country: BR, id: 82682, latitude: -8.00407, longitude: -34.888143, name: COMERCIAL DE ALIMENTOS COTUNGUBA EIRELI, postal_code: 50790, source: 1, state: PE, street_name: ROD BR-101 SUL S/N, street_number: 550",distinct
25,"city: RECIFE, country: BR, id: ChIJCX0H-_gYqwcRFe9ko0WqgF0, latitude: -8.0385563, longitude: -34.8987951, name: Prime Acai, postal_code: 52050, source: 0, state: PE, street_name: Av. Santos Dumont - Aflitos, street_number: None","city: RECIFE, country: BR, id: ChIJCX0H-_gYqwcRFe9ko0WqgF0, latitude: -8.0385563, longitude: -34.8987951, name: Prime Acai, postal_code: 52050, source: 0, state: PE, street_name: Av. Santos Dumont - Aflitos, street_number: None",match
26,"city: None, country: BR, id: ChIJ3bE_DeUYqwcRHdwlc9O9sb4, latitude: -8.047877799999998, longitude: -34.8969774, name: Nakasa Sushi, postal_code: None, source: 0, state: None, street_name: Brazil, street_number: None","city: None, country: BR, id: ChIJ3bE_DeUYqwcRHdwlc9O9sb4, latitude: -8.047877799999998, longitude: -34.8969774, name: Nakasa Sushi, postal_code: None, source: 0, state: None, street_name: Brazil, street_number: None",match
27,"city: RECIFE, country: BR, id: ChIJnbFVC9UeqwcRwbRsfYvRw80, latitude: -8.0747458, longitude: -34.9079439, name: Restaurante Erva Doce, postal_code: 50830, source: 0, state: PE, street_name: R. da Volta, street_number: 138","city: RECIFE, country: BR, id: ChIJnbFVC9UeqwcRwbRsfYvRw80, latitude: -8.0747458, longitude: -34.9079439, name: Restaurante Erva Doce, postal_code: 50830, source: 0, state: PE, street_name: R. da Volta, street_number: 138",match
28,"city: JABOAT?ODOSGUARARAPES, country: BR, id: ChIJ58Ymq-7hqgcRTHPasESqtUM, latitude: -8.157821400000001, longitude: -34.9341843, name: Mercadinho Guararapes, postal_code: 54325, source: 0, state: PE, street_name: Av. Gen. Barreto de Menezes, street_number: 1164","city: JABOAT?ODOSGUARARAPES, country: BR, id: ChIJyyq8N8DhqgcRUk1Q0b4eOss, latitude: -8.1625157, longitude: -34.926067100000004, name: Mercadinho Guararapes, postal_code: 54325, source: 0, state: PE, street_name: Av. Barreto de Menezes - Cajueiro Seco, street_number: None",match
29,"city: RECIFE, country: BR, id: ChIJNVVYFloeqwcRK43lDeXDo6k, latitude: -8.113987400000001, longitude: -34.9187802, name: Granja Vilela, postal_code: 51190, source: 0, state: PE, street_name: Rua Saldanha Marinho, street_number: 119","city: RECIFE, country: BR, id: ChIJmdD7FloeqwcRnyx2DZuq_Yg, latitude: -8.1139994, longitude: -34.9187641, name: Granja Vilela, postal_code: 51190, source: 0, state: PE, street_name: Rua Saldanha Marinho, street_number: 116",match
30,"city: RECIFE, country: BR, id: ChIJl_6KsKcfqwcRhF3TtwknMpQ, latitude: -8.1129462, longitude: -34.8935898, name: Barbarico, postal_code: 51020, source: 0, state: PE, street_name: Av. Eng. Domingos Ferreira, street_number: 2655","city: RECIFE, country: BR, id: ChIJ5eNusKcfqwcRyvTSAFqHFBc, latitude: -8.112984599999999, longitude: -34.8935067, name: Barbarico Bongiovanni, postal_code: 51011, source: 0, state: PE, street_name: Av. Eng. Domingos Ferreira, street_number: 2655",match
31,"city: RECIFE, country: BR, id: ChIJ5a7AUUgeqwcRIG64Zi7-9qU, latitude: -8.1254341, longitude: -34.915402, name: Hotel Aeroporto, postal_code: 51150, source: 0, state: PE, street_name: Av. Mal. Mascarenhas de Morais, street_number: 4728","city: RECIFE, country: BR, id: ChIJcXIx1v4eqwcRJ2xUAMeDhG8, latitude: -8.106973, longitude: -34.911575, name: Hotel Aeroporto, postal_code: 51200, source: 0, state: PE, street_name: Av. Mal. Mascarenhas de Morais - Imbiribeira, street_number: None",match
32,"city: RECIFE, country: BR, id: ChIJR2E-aPEYqwcRu7JidsPEYUI, latitude: -8.043258400000001, longitude: -34.8907887, name: Galeria Sales, postal_code: 52021, source: 0, state: PE, street_name: Av. Jo?o de Barros, street_number: 13H","city: RECIFE, country: BR, id: ChIJZYA-aPEYqwcRrybzVW4kM7w, latitude: -8.0432551, longitude: -34.89079, name: Galeria Sales, postal_code: 52021, source: 0, state: PE, street_name: Av. Jo?o de Barros, street_number: 1311",match
33,"city: JABOAT?ODOSGUARARAPES, country: BR, id: ChIJCQ-gnAXiqgcRQeM8VlwUgNk, latitude: -8.1481333, longitude: -34.9609148, name: GM FRIOS Atacadista, postal_code: None, source: 0, state: PE, street_name: Marcos Freire, street_number: None","city: JABOAT?ODOSGUARARAPES, country: BR, id: ChIJCQ-gnAXiqgcRQeM8VlwUgNk, latitude: -8.1481333, longitude: -34.9609148, name: GM FRIOS Atacadista, postal_code: None, source: 0, state: PE, street_name: Marcos Freire, street_number: None",match
34,"city: None, country: BR, id: ChIJaeyySwwfqwcRulC9wm0YVk8, latitude: -8.1048355, longitude: -34.888445399999995, name: Temakeria Nori, postal_code: None, source: 0, state: None, street_name: Brazil, street_number: None","city: None, country: BR, id: ChIJaeyySwwfqwcRulC9wm0YVk8, latitude: -8.1048355, longitude: -34.888445399999995, name: Temakeria Nori, postal_code: None, source: 0, state: None, street_name: Brazil, street_number: None",match
35,"city: RECIFE, country: BR, id: ChIJ338tV7wZqwcR7AMCTB2_b24, latitude: -8.0222773, longitude: -34.925292600000006, name: Padaria Silva Ara?jo, postal_code: 52071, source: 0, state: PE, street_name: Av. Dr. Eur?co Chaves, street_number: 1029","city: RECIFE, country: BR, id: ChIJ4fkczr0ZqwcRK_5zcN28txY, latitude: -8.0207727, longitude: -34.926269700000006, name: Panificadora Silva Ara?jo, postal_code: 52071, source: 0, state: PE, street_name: Av. Dr. Eur?co Chaves, street_number: 1029",match
36,"city: RECIFE, country: BR, id: 15462, latitude: -8.125107, longitude: -34.936531, name: JOSE SEBASTIAO DE ARAUJO, postal_code: 51260, source: 1, state: PE, street_name: AV  DONA CARENTINA, street_number: SN","city: RECIFE, country: BR, id: 34598, latitude: None, longitude: None, name: JOSE SEBASTIAO DE ARAUJO, postal_code: 50000, source: 1, state: PE, street_name: AV   DONA ACARENTINA,3, street_number: None",match
37,"city: RECIFE, country: BR, id: 30499, latitude: -8.020592, longitude: -34.924133000000005, name: BENEDITO LEITE QUEIROZ, postal_code: 50040, source: 1, state: PE, street_name: AV  NORTE MIGUEL ARRAES DE ALENCA, street_number: R6888","city: RECIFE, country: BR, id: 81073, latitude: -8.019592999999999, longitude: -34.926666, name: BENEDITO LEITE DE QUEIROZ, postal_code: 52091, source: 1, state: PE, street_name: AV  NORTE MIGUEL ARRAES DE ALENCA, street_number: R6888",match
38,"city: RECIFE, country: BR, id: 77756, latitude: -7.976775999999999, longitude: -34.919236, name: MARCO AURELIO DOS SANTOS, postal_code: 52170, source: 1, state: PE, street_name: EST DO PASSARINHO (TRECHO INICIAL, street_number: 0.3423","city: RECIFE, country: BR, id: 83801, latitude: -7.9770080000000005, longitude: -34.919354999999996, name: MARCILENE SEVERINA DOS SANTOS 0471077640, postal_code: 52170, source: 1, state: PE, street_name: EST DO PASSARINHO (TRECHO INICIAL, street_number: 0.3423",match
39,"city: RECIFE, country: BR, id: 80539, latitude: -8.083508, longitude: -34.957858, name: DJACI RODRIGUES DAS NEVES, postal_code: 50920, source: 1, state: PE, street_name: AV  LIBERDADE, street_number: 1609","city: RECIFE, country: BR, id: 89060, latitude: -8.081358, longitude: -34.966868, name: DJACI RODRIGUES DAS NEVES, postal_code: 50920, source: 1, state: PE, street_name: AV  LIBERDADE, street_number: 1809",match
40,"city: RECIFE, country: BR, id: 5427, latitude: -8.054456, longitude: -34.927153000000004, name: NELSON RIBEIRO DE ARAUJO, postal_code: 50650, source: 1, state: PE, street_name: R   MIGUEL VIEIRA FERREIRA, street_number: 1737","city: RECIFE, country: BR, id: 40310, latitude: -8.056078999999999, longitude: -34.921889, name: NELSON RIBEIRO DE ARAUJO, postal_code: 50721, source: 1, state: PE, street_name: R   DOUTOR MIGUEL VIEIRA FERREIRA, street_number: 737",match
41,"city: RECIFE, country: BR, id: 80355, latitude: -8.01242, longitude: -34.939474, name: TALUDE RESTAURANTE EIRELI, postal_code: 52291, source: 1, state: PE, street_name: AV  DA RECUPERACAO, street_number: 7343","city: RECIFE, country: BR, id: 88724, latitude: -8.012283, longitude: -34.939184000000004, name: TALUDE E RECEPCOES E DELIVERY EIRELI ME, postal_code: 52091, source: 1, state: PE, street_name: AV  DA RECUPERACAO, street_number: 7343",match
42,"city: RECIFE, country: BR, id: 37661, latitude: -8.033673, longitude: -34.937717, name: JOAO SOARES BONFIM, postal_code: 50690, source: 1, state: PE, street_name: R   IOLANDA RODRIGO SOBRAL 557, street_number: None","city: RECIFE, country: BR, id: 37661, latitude: -8.033673, longitude: -34.937717, name: JOAO SOARES BONFIM, postal_code: 50690, source: 1, state: PE, street_name: R   IOLANDA RODRIGO SOBRAL 557, street_number: None",match
43,"city: RECIFE, country: BR, id: 74089, latitude: -8.115656, longitude: -34.919615, name: JOSE RICARDO DE OLIVEIRA SANTOS, postal_code: 51190, source: 1, state: PE, street_name: R   ANTONIO CONSELHEIRO, street_number: 21","city: RECIFE, country: BR, id: 78391, latitude: -8.112209, longitude: -34.921423, name: JOSE RICARDO DE OLIVEIRA SANTOS, postal_code: 51190, source: 1, state: PE, street_name: R   ANTONIO CONSELHEIRO, street_number: 2",match
44,"city: RECIFE, country: BR, id: 63471, latitude: -8.022506, longitude: -34.907158, name: JAILSON DA  SILVA NASCIMENTO, postal_code: 52210, source: 1, state: PE, street_name: R   HORACIO SILVA, street_number: 251","city: RECIFE, country: BR, id: 74002, latitude: -8.022563, longitude: -34.907069, name: JOAO CARLOS DA SILVA, postal_code: 52210, source: 1, state: PE, street_name: R   HORACIO SILVA, street_number: 251",match
45,"city: RECIFE, country: BR, id: 88735, latitude: -8.020227, longitude: -34.906959, name: DANIELLE DE SOUZA BARROS, postal_code: 52080, source: 1, state: PE, street_name: R   ARLINDO CISNEIROS, street_number: 234","city: RECIFE, country: BR, id: 89322, latitude: -8.020365, longitude: -34.906837, name: DANIELLE DE SOUZA BARROS 02336035499, postal_code: 52080, source: 1, state: PE, street_name: R   ARLINDO CISNEIROS, street_number: 234",match
